dplyr Cheatsheet to DataFrames.jl Page 1 · Mohamad Ali Mohamadi
…
Any function that operates on (sub)dataframes can be used immediately (nrow here):

julia> combine(groupby(data, [:Cyl, :Drv], sort = true), nrow)
9×3 DataFrame
 Row │ Cyl    Drv   nrow
     │ Int32  Cat…  Int64
─────┼────────────────────
   1 │     4  4        23
   2 │     4  f        58
   3 │     5  f         4
   4 │     6  4        32
   5 │     6  f        43
   6 │     6  r         4
   7 │     8  4        48
   8 │     8  f         1
   9 │     8  r        21

This was a proper interlude to the next topic, grouping.

Group Cases #
Ungroup #
The general grouping operation in DataFrames.jl is as above, whereby a “sub” dataframe is recognized, perhaps not overly different from views in arrays.

Ungrouping is done rather automatically. The default value of ungroup in the transformation functions is true.

julia> df = groupby(data, [:Cyl, :Drv], sort = true)
GroupedDataFrame with 9 groups based on keys: Cyl, Drv
First Group (23 rows): Cyl = 4, Drv = CategoricalArrays.CategoricalValue{String, UInt8} "4"
 Row │ Manufacturer  Model              Displ    Year   Cyl    Trans         D ⋯
     │ Categorical…  Categorical…       Float64  Int32  Int32  Categorical…  C ⋯
─────┼──────────────────────────────────────────────────────────────────────────
   1 │ audi          a4 quattro             1.8   1999      4  manual(m5)    4 ⋯
   2 │ audi          a4 quattro             1.8   1999      4  auto(l5)      4
   3 │ audi          a4 quattro             2.0   2008      4  manual(m6)    4
   4 │ audi          a4 quattro             2.0   2008      4  auto(s6)      4
   5 │ subaru        forester awd           2.5   1999      4  manual(m5)    4 ⋯
   6 │ subaru        forester awd           2.5   1999      4  auto(l4)      4
   7 │ subaru        forester awd           2.5   2008      4  manual(m5)    4
   8 │ subaru        forester awd           2.5   2008      4  manual(m5)    4
  ⋮  │      ⋮                ⋮             ⋮       ⋮      ⋮         ⋮          ⋱
  16 │ subaru        impreza awd            2.5   2008      4  auto(s4)      4 ⋯
  17 │ subaru        impreza awd            2.5   2008      4  manual(m5)    4
  18 │ subaru        impreza awd            2.5   2008      4  manual(m5)    4
  19 │ toyota        4runner 4wd            2.7   1999      4  manual(m5)    4
  20 │ toyota        4runner 4wd            2.7   1999      4  auto(l4)      4 ⋯
  21 │ toyota        toyota tacoma 4wd      2.7   1999      4  manual(m5)    4
  22 │ toyota        toyota tacoma 4wd      2.7   1999      4  auto(l4)      4
  23 │ toyota        toyota tacoma 4wd      2.7   2008      4  manual(m5)    4
                                                    5 columns and 7 rows omitted
…
julia> df2 = combine(df, :)
234×11 DataFrame
 Row │ Cyl    Drv   Manufacturer  Model           Displ    Year   Trans        ⋯
     │ Int32  Cat…  Cat…          Cat…            Float64  Int32  Cat…         ⋯
─────┼──────────────────────────────────────────────────────────────────────────
   1 │     4  4     audi          a4 quattro          1.8   1999  manual(m5)   ⋯
   2 │     4  4     audi          a4 quattro          1.8   1999  auto(l5)
   3 │     4  4     audi          a4 quattro          2.0   2008  manual(m6)
   4 │     4  4     audi          a4 quattro          2.0   2008  auto(s6)
   5 │     4  4     subaru        forester awd        2.5   1999  manual(m5)   ⋯
   6 │     4  4     subaru        forester awd        2.5   1999  auto(l4)
   7 │     4  4     subaru        forester awd        2.5   2008  manual(m5)
   8 │     4  4     subaru        forester awd        2.5   2008  manual(m5)
  ⋮  │   ⋮     ⋮         ⋮              ⋮            ⋮       ⋮        ⋮        ⋱
 228 │     8  r     ford          mustang             4.6   1999  manual(m5)   ⋯
 229 │     8  r     ford          mustang             4.6   2008  manual(m5)
 230 │     8  r     ford          mustang             4.6   2008  auto(l5)
 231 │     8  r     ford          mustang             5.4   2008  manual(m6)
 232 │     8  r     lincoln       navigator 2wd       5.4   1999  auto(l4)     ⋯
 233 │     8  r     lincoln       navigator 2wd       5.4   1999  auto(l4)
 234 │     8  r     lincoln       navigator 2wd       5.4   2008  auto(l6)
                                                  4 columns and 219 rows omitted

The colon indicates that all items should be retained (whether columns or rows, depending on the specific argument it is used in place of). Here, it means to keep all rows and columns. However, since combine does ungrouping by default, that means retaining the original content of the data:

julia> nrow(df2) == nrow(data)
true

It is important to note, however, that presently, grouping changes the row order.

julia> df3 = combine(data, :)
234×11 DataFrame
 Row │ Manufacturer  Model         Displ    Year   Cyl    Trans         Drv    ⋯
     │ Categorical…  Categorical…  Float64  Int32  Int32  Categorical…  Catego ⋯
─────┼──────────────────────────────────────────────────────────────────────────
   1 │ audi          a4                1.8   1999      4  auto(l5)      f      ⋯
   2 │ audi          a4                1.8   1999      4  manual(m5)    f
   3 │ audi          a4                2.0   2008      4  manual(m6)    f
   4 │ audi          a4                2.0   2008      4  auto(av)      f
   5 │ audi          a4                2.8   1999      6  auto(l5)      f      ⋯
   6 │ audi          a4                2.8   1999      6  manual(m5)    f
   7 │ audi          a4                3.1   2008      6  auto(av)      f
   8 │ audi          a4 quattro        1.8   1999      4  manual(m5)    4
  ⋮  │      ⋮             ⋮           ⋮       ⋮      ⋮         ⋮             ⋮ ⋱
 228 │ volkswagen    passat            1.8   1999      4  manual(m5)    f      ⋯
 229 │ volkswagen    passat            1.8   1999      4  auto(l5)      f
 230 │ volkswagen    passat            2.0   2008      4  auto(s6)      f
 231 │ volkswagen    passat            2.0   2008      4  manual(m6)    f
 232 │ volkswagen    passat            2.8   1999      6  auto(l5)      f      ⋯
 233 │ volkswagen    passat            2.8   1999      6  manual(m5)    f
 234 │ volkswagen    passat            3.6   2008      6  auto(s6)      f
                                                  5 columns and 219 rows omitted
…
In r, use of the ungroup function is needed.

Row-wise operation #
Row-wise is, conceptually, setting each row as its own group. Nevertheless, oftentimes we do not need to think this way.

Say you want to know the minimum between 1.5 times the city miles per gallon and highway miles per galon for each model. In r, it would require this:

julia> R"""
       data %>% rowwise() %>% mutate(maxy = max(1.5*Cty, Hwy)) %>% 
           select(maxy, everything())
       """
RObject{VecSxp}
# A tibble: 234 x 12
# Rowwise: 
    maxy Manufacturer Model    Displ  Year   Cyl Trans   Drv     Cty   Hwy Fl   
   <dbl> <fct>        <fct>    <dbl> <int> <int> <fct>   <fct> <int> <int> <fct>
 1  29   audi         a4         1.8  1999     4 auto(l… f        18    29 p    
 2  31.5 audi         a4         1.8  1999     4 manual… f        21    29 p    
 3  31   audi         a4         2    2008     4 manual… f        20    31 p    
 4  31.5 audi         a4         2    2008     4 auto(a… f        21    30 p    
 5  26   audi         a4         2.8  1999     6 auto(l… f        16    26 p    
 6  27   audi         a4         2.8  1999     6 manual… f        18    26 p    
 7  27   audi         a4         3.1  2008     6 auto(a… f        18    27 p    
 8  27   audi         a4 quat…   1.8  1999     4 manual… 4        18    26 p    
 9  25   audi         a4 quat…   1.8  1999     4 auto(l… 4        16    25 p    
10  30   audi         a4 quat…   2    2008     4 manual… 4        20    28 p    
# … with 224 more rows, and 1 more variable: Class <fct>

In Julia, it is simply a matter of specifying the operation itself to rowwise:

julia> transform(data, [:Cty, :Hwy] => ByRow((x,y)->max(1.5*x,y)) => :maxy) |> 
       x->x[:, Cols([:maxy], :)]
234×12 DataFrame
 Row │ maxy     Manufacturer  Model         Displ    Year   Cyl    Trans       ⋯
     │ Float64  Categorical…  Categorical…  Float64  Int32  Int32  Categorical ⋯
─────┼──────────────────────────────────────────────────────────────────────────
   1 │    29.0  audi          a4                1.8   1999      4  auto(l5)    ⋯
   2 │    31.5  audi          a4                1.8   1999      4  manual(m5)
   3 │    31.0  audi          a4                2.0   2008      4  manual(m6)
   4 │    31.5  audi          a4                2.0   2008      4  auto(av)
   5 │    26.0  audi          a4                2.8   1999      6  auto(l5)    ⋯
   6 │    27.0  audi          a4                2.8   1999      6  manual(m5)
   7 │    27.0  audi          a4                3.1   2008      6  auto(av)
   8 │    27.0  audi          a4 quattro        1.8   1999      4  manual(m5)
  ⋮  │    ⋮          ⋮             ⋮           ⋮       ⋮      ⋮         ⋮      ⋱
 228 │    31.5  volkswagen    passat            1.8   1999      4  manual(m5)  ⋯
 229 │    29.0  volkswagen    passat            1.8   1999      4  auto(l5)
 230 │    28.5  volkswagen    passat            2.0   2008      4  auto(s6)
 231 │    31.5  volkswagen    passat            2.0   2008      4  manual(m6)
 232 │    26.0  volkswagen    passat            2.8   1999      6  auto(l5)    ⋯
 233 │    27.0  volkswagen    passat            2.8   1999      6  manual(m5)
 234 │    26.0  volkswagen    passat            3.6   2008      6  auto(s6)
                                                  6 columns and 219 rows omitted

Manipulate Cases #
Filter #
Filtering essentially uses the same principles as applied to any other Julia data structure, and can even use the conventional filter function for this purpose:

julia> filter(:Cty => x->(x>20), data)[:, Cols(:Cty,:)]
45×11 DataFrame
 Row │ Cty    Manufacturer  Model         Displ    Year   Cyl    Trans         ⋯
     │ Int32  Categorical…  Categorical…  Float64  Int32  Int32  Categorical…  ⋯
─────┼──────────────────────────────────────────────────────────────────────────
   1 │    21  audi          a4                1.8   1999      4  manual(m5)    ⋯
   2 │    21  audi          a4                2.0   2008      4  auto(av)
   3 │    22  chevrolet     malibu            2.4   2008      4  auto(l4)
   4 │    28  honda         civic             1.6   1999      4  manual(m5)
   5 │    24  honda         civic             1.6   1999      4  auto(l4)      ⋯
   6 │    25  honda         civic             1.6   1999      4  manual(m5)
   7 │    23  honda         civic             1.6   1999      4  manual(m5)
   8 │    24  honda         civic             1.6   1999      4  auto(l4)
  ⋮  │   ⋮         ⋮             ⋮           ⋮       ⋮      ⋮         ⋮        ⋱
  39 │    21  volkswagen    jetta             2.5   2008      5  auto(s6)      ⋯
  40 │    21  volkswagen    jetta             2.5   2008      5  manual(m5)
  41 │    35  volkswagen    new beetle        1.9   1999      4  manual(m5)
  42 │    29  volkswagen    new beetle        1.9   1999      4  auto(l4)
  43 │    21  volkswagen    new beetle        2.0   1999      4  manual(m5)    ⋯
  44 │    21  volkswagen    passat            1.8   1999      4  manual(m5)
  45 │    21  volkswagen    passat            2.0   2008      4  manual(m6)
                                                   4 columns and 30 rows omitted

Julia data collection functions usually take a function as the first argument in order to facilitate the use of do blocks. This doesn’t look nice when using piping. Therefore, my suggestion is to stick with the subset function. Besides, apparently, filter doesn’t work on data groups.

julia> subset(data, :Cty => x->(x.>20))[:, Cols(:Cty,:)]
45×11 DataFrame
 Row │ Cty    Manufacturer  Model         Displ    Year   Cyl    Trans         ⋯
     │ Int32  Categorical…  Categorical…  Float64  Int32  Int32  Categorical…  ⋯
─────┼──────────────────────────────────────────────────────────────────────────
   1 │    21  audi          a4                1.8   1999      4  manual(m5)    ⋯
   2 │    21  audi          a4                2.0   2008      4  auto(av)
   3 │    22  chevrolet     malibu            2.4   2008      4  auto(l4)
   4 │    28  honda         civic             1.6   1999      4  manual(m5)
   5 │    24  honda         civic             1.6   1999      4  auto(l4)      ⋯
   6 │    25  honda         civic             1.6   1999      4  manual(m5)
   7 │    23  honda         civic             1.6   1999      4  manual(m5)
   8 │    24  honda         civic             1.6   1999      4  auto(l4)
  ⋮  │   ⋮         ⋮             ⋮           ⋮       ⋮      ⋮         ⋮        ⋱
  39 │    21  volkswagen    jetta             2.5   2008      5  auto(s6)      ⋯
  40 │    21  volkswagen    jetta             2.5   2008      5  manual(m5)
  41 │    35  volkswagen    new beetle        1.9   1999      4  manual(m5)
  42 │    29  volkswagen    new beetle        1.9   1999      4  auto(l4)
  43 │    21  volkswagen    new beetle        2.0   1999      4  manual(m5)    ⋯
  44 │    21  volkswagen    passat            1.8   1999      4  manual(m5)
  45 │    21  volkswagen    passat            2.0   2008      4  manual(m6)
                                                   4 columns and 30 rows omitted
…
Slice min and max #
This is just a convenience function:

julia> data[data.Cty .>= quantile(data.Cty, 0.75),:]
76×11 DataFrame
 Row │ Manufacturer  Model         Displ    Year   Cyl    Trans         Drv    ⋯
     │ Categorical…  Categorical…  Float64  Int32  Int32  Categorical…  Catego ⋯
─────┼──────────────────────────────────────────────────────────────────────────
   1 │ audi          a4                1.8   1999      4  manual(m5)    f      ⋯
   2 │ audi          a4                2.0   2008      4  manual(m6)    f
   3 │ audi          a4                2.0   2008      4  auto(av)      f
   4 │ audi          a4 quattro        2.0   2008      4  manual(m6)    4
   5 │ audi          a4 quattro        2.0   2008      4  auto(s6)      4      ⋯
   6 │ chevrolet     malibu            2.4   1999      4  auto(l4)      f
   7 │ chevrolet     malibu            2.4   2008      4  auto(l4)      f
   8 │ honda         civic             1.6   1999      4  manual(m5)    f
  ⋮  │      ⋮             ⋮           ⋮       ⋮      ⋮         ⋮             ⋮ ⋱
  70 │ volkswagen    new beetle        2.0   1999      4  manual(m5)    f      ⋯
  71 │ volkswagen    new beetle        2.0   1999      4  auto(l4)      f
  72 │ volkswagen    new beetle        2.5   2008      5  manual(m5)    f
  73 │ volkswagen    new beetle        2.5   2008      5  auto(s6)      f
  74 │ volkswagen    passat            1.8   1999      4  manual(m5)    f      ⋯
  75 │ volkswagen    passat            2.0   2008      4  auto(s6)      f
  76 │ volkswagen    passat            2.0   2008      4  manual(m6)    f
                                                   5 columns and 61 rows omitted

The R code:

julia> R"""
       slice_max(data, Cty, prop = 0.25)
       """
RObject{VecSxp}
# A tibble: 76 x 11
   Manufacturer Model   Displ  Year   Cyl Trans   Drv     Cty   Hwy Fl    Class 
   <fct>        <fct>   <dbl> <int> <int> <fct>   <fct> <int> <int> <fct> <fct> 
 1 volkswagen   new be…   1.9  1999     4 manual… f        35    44 d     subco…
 2 volkswagen   jetta     1.9  1999     4 manual… f        33    44 d     compa…
 3 volkswagen   new be…   1.9  1999     4 auto(l… f        29    41 d     subco…
 4 honda        civic     1.6  1999     4 manual… f        28    33 r     subco…
 5 toyota       corolla   1.8  2008     4 manual… f        28    37 r     compa…
 6 honda        civic     1.8  2008     4 manual… f        26    34 r     subco…
 7 toyota       corolla   1.8  1999     4 manual… f        26    35 r     compa…
 8 toyota       corolla   1.8  2008     4 auto(l… f        26    35 r     compa…
 9 honda        civic     1.6  1999     4 manual… f        25    32 r     subco…
10 honda        civic     1.8  2008     4 auto(l… f        25    36 r     subco…
# … with 66 more rows
…
Arrange #
Instead of arrange, sort is used. The syntax is very clear:

julia> sort(data, [order(:Year, rev=true), :Displ])
234×11 DataFrame
 Row │ Manufacturer  Model                Displ    Year   Cyl    Trans         ⋯
     │ Categorical…  Categorical…         Float64  Int32  Int32  Categorical…  ⋯
─────┼──────────────────────────────────────────────────────────────────────────
   1 │ honda         civic                    1.8   2008      4  manual(m5)    ⋯
   2 │ honda         civic                    1.8   2008      4  auto(l5)
   3 │ honda         civic                    1.8   2008      4  auto(l5)
   4 │ toyota        corolla                  1.8   2008      4  manual(m5)
   5 │ toyota        corolla                  1.8   2008      4  auto(l4)      ⋯
   6 │ audi          a4                       2.0   2008      4  manual(m6)
   7 │ audi          a4                       2.0   2008      4  auto(av)
   8 │ audi          a4 quattro               2.0   2008      4  manual(m6)
  ⋮  │      ⋮                 ⋮              ⋮       ⋮      ⋮         ⋮        ⋱
 228 │ chevrolet     c1500 suburban 2wd       5.7   1999      8  auto(l4)      ⋯
 229 │ chevrolet     corvette                 5.7   1999      8  manual(m6)
 230 │ chevrolet     corvette                 5.7   1999      8  auto(l4)
 231 │ chevrolet     k1500 tahoe 4wd          5.7   1999      8  auto(l4)
 232 │ dodge         durango 4wd              5.9   1999      8  auto(l4)      ⋯
 233 │ dodge         ram 1500 pickup 4wd      5.9   1999      8  auto(l4)
 234 │ chevrolet     k1500 tahoe 4wd          6.5   1999      8  auto(l4)
                                                  5 columns and 219 rows omitted

julia> R"""
       arrange(data, desc(Year), Displ)
       """
RObject{VecSxp}
# A tibble: 234 x 11
   Manufacturer Model   Displ  Year   Cyl Trans   Drv     Cty   Hwy Fl    Class 
   <fct>        <fct>   <dbl> <int> <int> <fct>   <fct> <int> <int> <fct> <fct> 
 1 honda        civic     1.8  2008     4 manual… f        26    34 r     subco…
 2 honda        civic     1.8  2008     4 auto(l… f        25    36 r     subco…
 3 honda        civic     1.8  2008     4 auto(l… f        24    36 c     subco…
 4 toyota       corolla   1.8  2008     4 manual… f        28    37 r     compa…
 5 toyota       corolla   1.8  2008     4 auto(l… f        26    35 r     compa…
 6 audi         a4        2    2008     4 manual… f        20    31 p     compa…
 7 audi         a4        2    2008     4 auto(a… f        21    30 p     compa…
 8 audi         a4 qua…   2    2008     4 manual… 4        20    28 p     compa…
 9 audi         a4 qua…   2    2008     4 auto(s… 4        19    27 p     compa…
10 honda        civic     2    2008     4 manual… f        21    29 p     subco…
# … with 224 more rows
…
