Journey Through `tyecon`: Predictions on Recipe Nutritions · Mohamad Ali Mohamadi
…
  select(nutrition)
  mutate(nutrition = str_replace_all(nutrition, "[\\[\\]\\']", ""))
  separate(nutrition,
    into = c(
      "calories", "sat_fat", "sugar", "sodium", "protein", "tot_fat", "carbs"
    ),
    sep = ", ", convert = TRUE
  )
  # Center and scale too
  mutate(across(everything(), \(col) scale(col)[, 1]))
  set_attr("ids", ids)
}
nutrs

## # A tibble: 231,637 × 7
##    calories sat_fat   sugar  sodium protein tot_fat   carbs
##       <dbl>   <dbl>   <dbl>   <dbl>   <dbl>   <dbl>   <dbl>
##  1  -0.355   -0.464 -0.0891 -0.228  -0.559   -0.464 -0.141 
##  2  -0.253   -0.232 -0.105  -0.0996 -0.217   -0.108 -0.178 
##  3  -0.172   -0.181 -0.0654  0.135   0.0738  -0.189 -0.129 
##  4  -0.0890  -0.245 -0.0929 -0.213  -0.354   -0.383  0.0543
##  5  -0.102   -0.451  0.316  -0.0542 -0.542   -0.464  0.152 
##  6  -0.264   -0.335 -0.0366 -0.206  -0.439   -0.260 -0.105 
##  7  -0.0784   0.217 -0.0966 -0.0466 -0.491   -0.220 -0.117 
##  8   0.534    0.603  0.367   1.86    1.05     0.411  0.250 
##  9   3.19     2.80   1.53    0.613   1.58     3.92   2.50  
## 10   1.85     1.59   1.11    0.582   0.467    2.69   1.50  
## # … with 231,627 more rows
…
  },
  fold = transpose(vfold_cv(nutrs_train, 5)) ~ 1,
  interface = c("lasso", "earth", "plsr") ~ 2,
  lambda = c(0.1, 0.2) ~ 3,
  degree = c(1, 2) ~ 4,
  ncomp = c(5, 6) ~ 5,
  .refiner = ~ confine(.,
    lambda = interface %in% c("lasso", "ridge"), degree = interface == "earth",
    ncomp = interface == "plsr"
  ),
  .unnest_value = TRUE
)
models_preds

## # A tibble: 30 × 7
##    fold             interface lambda degree ncomp model    rmse
##    <list>           <chr>      <dbl>  <dbl> <dbl> <list>  <dbl>
##  1 <named list [2]> lasso        0.1     NA    NA <elnet> 0.870
##  2 <named list [2]> lasso        0.2     NA    NA <elnet> 0.911
##  3 <named list [2]> earth       NA        1    NA <earth> 0.351
##  4 <named list [2]> earth       NA        2    NA <earth> 0.341
##  5 <named list [2]> plsr        NA       NA     5 <mvr>   0.330
##  6 <named list [2]> plsr        NA       NA     6 <mvr>   0.330
##  7 <named list [2]> lasso        0.1     NA    NA <elnet> 1.02 
##  8 <named list [2]> lasso        0.2     NA    NA <elnet> 1.09 
##  9 <named list [2]> earth       NA        1    NA <earth> 2.50 
## 10 <named list [2]> earth       NA        2    NA <earth> 4.84 
## # … with 20 more rows
…
